SimonTest.vcd
$date
	Mon Dec  2 13:46:54 2019
$end
$version
	Icarus Verilog
$end
$timescale
	100ps
$end
$scope module ButtonDebouncer $end
$var wire 1 ! noisy_btn $end
$var wire 1 " sysclk $end
$var reg 1 # clean_btn $end
$var reg 32 $ count [31:0] $end
$var reg 1 % xnew $end
$upscope $end
$scope module SimonTest $end
$var wire 4 & pattern_leds [3:0] $end
$var wire 3 ' mode_leds [2:0] $end
$var reg 1 ( clk $end
$var reg 8 ) errors [7:0] $end
$var reg 1 * level $end
$var reg 4 + pattern [3:0] $end
$var reg 1 , rst $end
$var reg 1 - sysclk $end
$var integer 32 . idx [31:0] $end
$scope module simon $end
$var wire 1 * level $end
$var wire 4 / pattern [3:0] $end
$var wire 1 ( pclk $end
$var wire 1 , rst $end
$var wire 1 - sysclk $end
$var wire 1 0 uclk $end
$var wire 1 1 write_pattern $end
$var wire 1 2 valid_repeat $end
$var wire 1 3 valid_input $end
$var wire 1 4 seq_remain $end
$var wire 4 5 pattern_leds [3:0] $end
$var wire 3 6 mode_leds [2:0] $end
$var wire 1 7 input_led_pattern $end
$var wire 1 8 increment_n $end
$var wire 1 9 increment_i $end
$var wire 1 : clear_i $end
$scope module ctrl $end
$var wire 1 0 clk $end
$var wire 1 , rst $end
$var wire 1 2 valid_repeat $end
$var wire 1 3 valid_input $end
$var wire 1 4 seq_remain $end
$var reg 1 : clear_i $end
$var reg 1 9 increment_i $end
$var reg 1 8 increment_n $end
$var reg 1 7 input_led_pattern $end
$var reg 3 ; mode_leds [2:0] $end
$var reg 2 < next_state [1:0] $end
$var reg 2 = state [1:0] $end
$var reg 1 1 write_pattern $end
$upscope $end
$scope module dpath $end
$var wire 1 : clear_i $end
$var wire 1 0 clk $end
$var wire 1 9 increment_i $end
$var wire 1 8 increment_n $end
$var wire 1 7 input_led_pattern $end
$var wire 1 * level $end
$var wire 4 > pattern [3:0] $end
$var wire 1 , rst $end
$var wire 1 1 write_pattern $end
$var wire 4 ? read_data [3:0] $end
$var reg 6 @ i [5:0] $end
$var reg 6 A n [5:0] $end
$var reg 4 B pattern_leds [3:0] $end
$var reg 1 C perm_level $end
$var reg 1 4 seq_remain $end
$var reg 1 3 valid_input $end
$var reg 1 2 valid_repeat $end
$scope module mem $end
$var wire 1 0 clk $end
$var wire 6 D r_addr [5:0] $end
$var wire 4 E r_data [3:0] $end
$var wire 1 , rst $end
$var wire 6 F w_addr [5:0] $end
$var wire 4 G w_data [3:0] $end
$var wire 1 1 w_en $end
$scope begin wport[0] $end
$upscope $end
$scope begin wport[1] $end
$upscope $end
$scope begin wport[2] $end
$upscope $end
$scope begin wport[3] $end
$upscope $end
$scope begin wport[4] $end
$upscope $end
$scope begin wport[5] $end
$upscope $end
$scope begin wport[6] $end
$upscope $end
$scope begin wport[7] $end
$upscope $end
$scope begin wport[8] $end
$upscope $end
$scope begin wport[9] $end
$upscope $end
$scope begin wport[10] $end
$upscope $end
$scope begin wport[11] $end
$upscope $end
$scope begin wport[12] $end
$upscope $end
$scope begin wport[13] $end
$upscope $end
$scope begin wport[14] $end
$upscope $end
$scope begin wport[15] $end
$upscope $end
$scope begin wport[16] $end
$upscope $end
$scope begin wport[17] $end
$upscope $end
$scope begin wport[18] $end
$upscope $end
$scope begin wport[19] $end
$upscope $end
$scope begin wport[20] $end
$upscope $end
$scope begin wport[21] $end
$upscope $end
$scope begin wport[22] $end
$upscope $end
$scope begin wport[23] $end
$upscope $end
$scope begin wport[24] $end
$upscope $end
$scope begin wport[25] $end
$upscope $end
$scope begin wport[26] $end
$upscope $end
$scope begin wport[27] $end
$upscope $end
$scope begin wport[28] $end
$upscope $end
$scope begin wport[29] $end
$upscope $end
$scope begin wport[30] $end
$upscope $end
$scope begin wport[31] $end
$upscope $end
$scope begin wport[32] $end
$upscope $end
$scope begin wport[33] $end
$upscope $end
$scope begin wport[34] $end
$upscope $end
$scope begin wport[35] $end
$upscope $end
$scope begin wport[36] $end
$upscope $end
$scope begin wport[37] $end
$upscope $end
$scope begin wport[38] $end
$upscope $end
$scope begin wport[39] $end
$upscope $end
$scope begin wport[40] $end
$upscope $end
$scope begin wport[41] $end
$upscope $end
$scope begin wport[42] $end
$upscope $end
$scope begin wport[43] $end
$upscope $end
$scope begin wport[44] $end
$upscope $end
$scope begin wport[45] $end
$upscope $end
$scope begin wport[46] $end
$upscope $end
$scope begin wport[47] $end
$upscope $end
$scope begin wport[48] $end
$upscope $end
$scope begin wport[49] $end
$upscope $end
$scope begin wport[50] $end
$upscope $end
$scope begin wport[51] $end
$upscope $end
$scope begin wport[52] $end
$upscope $end
$scope begin wport[53] $end
$upscope $end
$scope begin wport[54] $end
$upscope $end
$scope begin wport[55] $end
$upscope $end
$scope begin wport[56] $end
$upscope $end
$scope begin wport[57] $end
$upscope $end
$scope begin wport[58] $end
$upscope $end
$scope begin wport[59] $end
$upscope $end
$scope begin wport[60] $end
$upscope $end
$scope begin wport[61] $end
$upscope $end
$scope begin wport[62] $end
$upscope $end
$scope begin wport[63] $end
$upscope $end
$upscope $end
$upscope $end
$upscope $end
$upscope $end
$scope module SimonTest $end
$scope module simon $end
$scope module dpath $end
$scope module mem $end
$var reg 4 H \mem[0] [3:0] $end
$upscope $end
$upscope $end
$upscope $end
$upscope $end
$scope module SimonTest $end
$scope module simon $end
$scope module dpath $end
$scope module mem $end
$var reg 4 I \mem[1] [3:0] $end
$upscope $end
$upscope $end
$upscope $end
$upscope $end
$scope module SimonTest $end
$scope module simon $end
$scope module dpath $end
$scope module mem $end
$var reg 4 J \mem[2] [3:0] $end
$upscope $end
$upscope $end
$upscope $end
$upscope $end
$scope module SimonTest $end
$scope module simon $end
$scope module dpath $end
$scope module mem $end
$var reg 4 K \mem[3] [3:0] $end
$upscope $end
$upscope $end
$upscope $end
$upscope $end
$scope module SimonTest $end
$scope module simon $end
$scope module dpath $end
$scope module mem $end
$var reg 4 L \mem[4] [3:0] $end
$upscope $end
$upscope $end
$upscope $end
$upscope $end
$scope module SimonTest $end
$scope module simon $end
$scope module dpath $end
$scope module mem $end
$var reg 4 M \mem[5] [3:0] $end
$upscope $end
$upscope $end
$upscope $end
$upscope $end
$scope module SimonTest $end
$scope module simon $end
$scope module dpath $end
$scope module mem $end
$var reg 4 N \mem[6] [3:0] $end
$upscope $end
$upscope $end
$upscope $end
$upscope $end
$scope module SimonTest $end
$scope module simon $end
$scope module dpath $end
$scope module mem $end
$var reg 4 O \mem[7] [3:0] $end
$upscope $end
$upscope $end
$upscope $end
$upscope $end
$scope module SimonTest $end
$scope module simon $end
$scope module dpath $end
$scope module mem $end
$var reg 4 P \mem[8] [3:0] $end
$upscope $end
$upscope $end
$upscope $end
$upscope $end
$scope module SimonTest $end
$scope module simon $end
$scope module dpath $end
$scope module mem $end
$var reg 4 Q \mem[9] [3:0] $end
$upscope $end
$upscope $end
$upscope $end
$upscope $end
$scope module SimonTest $end
$scope module simon $end
$scope module dpath $end
$scope module mem $end
$var reg 4 R \mem[10] [3:0] $end
$upscope $end
$upscope $end
$upscope $end
$upscope $end
$scope module SimonTest $end
$scope module simon $end
$scope module dpath $end
$scope module mem $end
$var reg 4 S \mem[11] [3:0] $end
$upscope $end
$upscope $end
$upscope $end
$upscope $end
$scope module SimonTest $end
$scope module simon $end
$scope module dpath $end
$scope module mem $end
$var reg 4 T \mem[12] [3:0] $end
$upscope $end
$upscope $end
$upscope $end
$upscope $end
$scope module SimonTest $end
$scope module simon $end
$scope module dpath $end
$scope module mem $end
$var reg 4 U \mem[13] [3:0] $end
$upscope $end
$upscope $end
$upscope $end
$upscope $end
$scope module SimonTest $end
$scope module simon $end
$scope module dpath $end
$scope module mem $end
$var reg 4 V \mem[14] [3:0] $end
$upscope $end
$upscope $end
$upscope $end
$upscope $end
$scope module SimonTest $end
$scope module simon $end
$scope module dpath $end
$scope module mem $end
$var reg 4 W \mem[15] [3:0] $end
$upscope $end
$upscope $end
$upscope $end
$upscope $end
$scope module SimonTest $end
$scope module simon $end
$scope module dpath $end
$scope module mem $end
$var reg 4 X \mem[16] [3:0] $end
$upscope $end
$upscope $end
$upscope $end
$upscope $end
$scope module SimonTest $end
$scope module simon $end
$scope module dpath $end
$scope module mem $end
$var reg 4 Y \mem[17] [3:0] $end
$upscope $end
$upscope $end
$upscope $end
$upscope $end
$scope module SimonTest $end
$scope module simon $end
$scope module dpath $end
$scope module mem $end
$var reg 4 Z \mem[18] [3:0] $end
$upscope $end
$upscope $end
$upscope $end
$upscope $end
$scope module SimonTest $end
$scope module simon $end
$scope module dpath $end
$scope module mem $end
$var reg 4 [ \mem[19] [3:0] $end
$upscope $end
$upscope $end
$upscope $end
$upscope $end
$scope module SimonTest $end
$scope module simon $end
$scope module dpath $end
$scope module mem $end
$var reg 4 \ \mem[20] [3:0] $end
$upscope $end
$upscope $end
$upscope $end
$upscope $end
$scope module SimonTest $end
$scope module simon $end
$scope module dpath $end
$scope module mem $end
$var reg 4 ] \mem[21] [3:0] $end
$upscope $end
$upscope $end
$upscope $end
$upscope $end
$scope module SimonTest $end
$scope module simon $end
$scope module dpath $end
$scope module mem $end
$var reg 4 ^ \mem[22] [3:0] $end
$upscope $end
$upscope $end
$upscope $end
$upscope $end
$scope module SimonTest $end
$scope module simon $end
$scope module dpath $end
$scope module mem $end
$var reg 4 _ \mem[23] [3:0] $end
$upscope $end
$upscope $end
$upscope $end
$upscope $end
$scope module SimonTest $end
$scope module simon $end
$scope module dpath $end
$scope module mem $end
$var reg 4 ` \mem[24] [3:0] $end
$upscope $end
$upscope $end
$upscope $end
$upscope $end
$scope module SimonTest $end
$scope module simon $end
$scope module dpath $end
$scope module mem $end
$var reg 4 a \mem[25] [3:0] $end
$upscope $end
$upscope $end
$upscope $end
$upscope $end
$scope module SimonTest $end
$scope module simon $end
$scope module dpath $end
$scope module mem $end
$var reg 4 b \mem[26] [3:0] $end
$upscope $end
$upscope $end
$upscope $end
$upscope $end
$scope module SimonTest $end
$scope module simon $end
$scope module dpath $end
$scope module mem $end
$var reg 4 c \mem[27] [3:0] $end
$upscope $end
$upscope $end
$upscope $end
$upscope $end
$scope module SimonTest $end
$scope module simon $end
$scope module dpath $end
$scope module mem $end
$var reg 4 d \mem[28] [3:0] $end
$upscope $end
$upscope $end
$upscope $end
$upscope $end
$scope module SimonTest $end
$scope module simon $end
$scope module dpath $end
$scope module mem $end
$var reg 4 e \mem[29] [3:0] $end
$upscope $end
$upscope $end
$upscope $end
$upscope $end
$scope module SimonTest $end
$scope module simon $end
$scope module dpath $end
$scope module mem $end
$var reg 4 f \mem[30] [3:0] $end
$upscope $end
$upscope $end
$upscope $end
$upscope $end
$scope module SimonTest $end
$scope module simon $end
$scope module dpath $end
$scope module mem $end
$var reg 4 g \mem[31] [3:0] $end
$upscope $end
$upscope $end
$upscope $end
$upscope $end
$scope module SimonTest $end
$scope module simon $end
$scope module dpath $end
$scope module mem $end
$var reg 4 h \mem[32] [3:0] $end
$upscope $end
$upscope $end
$upscope $end
$upscope $end
$scope module SimonTest $end
$scope module simon $end
$scope module dpath $end
$scope module mem $end
$var reg 4 i \mem[33] [3:0] $end
$upscope $end
$upscope $end
$upscope $end
$upscope $end
$scope module SimonTest $end
$scope module simon $end
$scope module dpath $end
$scope module mem $end
$var reg 4 j \mem[34] [3:0] $end
$upscope $end
$upscope $end
$upscope $end
$upscope $end
$scope module SimonTest $end
$scope module simon $end
$scope module dpath $end
$scope module mem $end
$var reg 4 k \mem[35] [3:0] $end
$upscope $end
$upscope $end
$upscope $end
$upscope $end
$scope module SimonTest $end
$scope module simon $end
$scope module dpath $end
$scope module mem $end
$var reg 4 l \mem[36] [3:0] $end
$upscope $end
$upscope $end
$upscope $end
$upscope $end
$scope module SimonTest $end
$scope module simon $end
$scope module dpath $end
$scope module mem $end
$var reg 4 m \mem[37] [3:0] $end
$upscope $end
$upscope $end
$upscope $end
$upscope $end
$scope module SimonTest $end
$scope module simon $end
$scope module dpath $end
$scope module mem $end
$var reg 4 n \mem[38] [3:0] $end
$upscope $end
$upscope $end
$upscope $end
$upscope $end
$scope module SimonTest $end
$scope module simon $end
$scope module dpath $end
$scope module mem $end
$var reg 4 o \mem[39] [3:0] $end
$upscope $end
$upscope $end
$upscope $end
$upscope $end
$scope module SimonTest $end
$scope module simon $end
$scope module dpath $end
$scope module mem $end
$var reg 4 p \mem[40] [3:0] $end
$upscope $end
$upscope $end
$upscope $end
$upscope $end
$scope module SimonTest $end
$scope module simon $end
$scope module dpath $end
$scope module mem $end
$var reg 4 q \mem[41] [3:0] $end
$upscope $end
$upscope $end
$upscope $end
$upscope $end
$scope module SimonTest $end
$scope module simon $end
$scope module dpath $end
$scope module mem $end
$var reg 4 r \mem[42] [3:0] $end
$upscope $end
$upscope $end
$upscope $end
$upscope $end
$scope module SimonTest $end
$scope module simon $end
$scope module dpath $end
$scope module mem $end
$var reg 4 s \mem[43] [3:0] $end
$upscope $end
$upscope $end
$upscope $end
$upscope $end
$scope module SimonTest $end
$scope module simon $end
$scope module dpath $end
$scope module mem $end
$var reg 4 t \mem[44] [3:0] $end
$upscope $end
$upscope $end
$upscope $end
$upscope $end
$scope module SimonTest $end
$scope module simon $end
$scope module dpath $end
$scope module mem $end
$var reg 4 u \mem[45] [3:0] $end
$upscope $end
$upscope $end
$upscope $end
$upscope $end
$scope module SimonTest $end
$scope module simon $end
$scope module dpath $end
$scope module mem $end
$var reg 4 v \mem[46] [3:0] $end
$upscope $end
$upscope $end
$upscope $end
$upscope $end
$scope module SimonTest $end
$scope module simon $end
$scope module dpath $end
$scope module mem $end
$var reg 4 w \mem[47] [3:0] $end
$upscope $end
$upscope $end
$upscope $end
$upscope $end
$scope module SimonTest $end
$scope module simon $end
$scope module dpath $end
$scope module mem $end
$var reg 4 x \mem[48] [3:0] $end
$upscope $end
$upscope $end
$upscope $end
$upscope $end
$scope module SimonTest $end
$scope module simon $end
$scope module dpath $end
$scope module mem $end
$var reg 4 y \mem[49] [3:0] $end
$upscope $end
$upscope $end
$upscope $end
$upscope $end
$scope module SimonTest $end
$scope module simon $end
$scope module dpath $end
$scope module mem $end
$var reg 4 z \mem[50] [3:0] $end
$upscope $end
$upscope $end
$upscope $end
$upscope $end
$scope module SimonTest $end
$scope module simon $end
$scope module dpath $end
$scope module mem $end
$var reg 4 { \mem[51] [3:0] $end
$upscope $end
$upscope $end
$upscope $end
$upscope $end
$scope module SimonTest $end
$scope module simon $end
$scope module dpath $end
$scope module mem $end
$var reg 4 | \mem[52] [3:0] $end
$upscope $end
$upscope $end
$upscope $end
$upscope $end
$scope module SimonTest $end
$scope module simon $end
$scope module dpath $end
$scope module mem $end
$var reg 4 } \mem[53] [3:0] $end
$upscope $end
$upscope $end
$upscope $end
$upscope $end
$scope module SimonTest $end
$scope module simon $end
$scope module dpath $end
$scope module mem $end
$var reg 4 ~ \mem[54] [3:0] $end
$upscope $end
$upscope $end
$upscope $end
$upscope $end
$scope module SimonTest $end
$scope module simon $end
$scope module dpath $end
$scope module mem $end
$var reg 4 !" \mem[55] [3:0] $end
$upscope $end
$upscope $end
$upscope $end
$upscope $end
$scope module SimonTest $end
$scope module simon $end
$scope module dpath $end
$scope module mem $end
$var reg 4 "" \mem[56] [3:0] $end
$upscope $end
$upscope $end
$upscope $end
$upscope $end
$scope module SimonTest $end
$scope module simon $end
$scope module dpath $end
$scope module mem $end
$var reg 4 #" \mem[57] [3:0] $end
$upscope $end
$upscope $end
$upscope $end
$upscope $end
$scope module SimonTest $end
$scope module simon $end
$scope module dpath $end
$scope module mem $end
$var reg 4 $" \mem[58] [3:0] $end
$upscope $end
$upscope $end
$upscope $end
$upscope $end
$scope module SimonTest $end
$scope module simon $end
$scope module dpath $end
$scope module mem $end
$var reg 4 %" \mem[59] [3:0] $end
$upscope $end
$upscope $end
$upscope $end
$upscope $end
$scope module SimonTest $end
$scope module simon $end
$scope module dpath $end
$scope module mem $end
$var reg 4 &" \mem[60] [3:0] $end
$upscope $end
$upscope $end
$upscope $end
$upscope $end
$scope module SimonTest $end
$scope module simon $end
$scope module dpath $end
$scope module mem $end
$var reg 4 '" \mem[61] [3:0] $end
$upscope $end
$upscope $end
$upscope $end
$upscope $end
$scope module SimonTest $end
$scope module simon $end
$scope module dpath $end
$scope module mem $end
$var reg 4 (" \mem[62] [3:0] $end
$upscope $end
$upscope $end
$upscope $end
$upscope $end
$scope module SimonTest $end
$scope module simon $end
$scope module dpath $end
$scope module mem $end
$var reg 4 )" \mem[63] [3:0] $end
$upscope $end
$upscope $end
$upscope $end
$upscope $end
$enddefinitions $end
#0
$dumpvars
bx )"
bx ("
bx '"
bx &"
bx %"
bx $"
bx #"
bx ""
bx !"
bx ~
bx }
bx |
bx {
bx z
bx y
bx x
bx w
bx v
bx u
bx t
bx s
bx r
bx q
bx p
bx o
bx n
bx m
bx l
bx k
bx j
bx i
bx h
bx g
bx f
bx e
bx d
bx c
bx b
bx a
bx `
bx _
bx ^
bx ]
bx \
bx [
bx Z
bx Y
bx X
bx W
bx V
bx U
bx T
bx S
bx R
bx Q
bx P
bx O
bx N
bx M
bx L
bx K
bx J
bx I
bx H
b0 G
b0 F
bx E
b0 D
0C
bx B
b0 A
b0 @
bx ?
b0 >
bx =
bx <
bx ;
x:
x9
08
x7
bx 6
bx 5
14
03
x2
01
00
b0 /
b1000000 .
0-
0,
b0 +
0*
b0 )
0(
bx '
bx &
x%
bx $
x#
z"
z!
$end
#10
1,
#30
b0 &
b0 5
b0 B
12
b1 '
b1 6
b1 ;
17
09
0:
b0 <
b0 H
b0 ?
b0 E
b0 I
b0 J
b0 K
b0 L
b0 M
b0 N
b0 O
b0 P
b0 Q
b0 R
b0 S
b0 T
b0 U
b0 V
b0 W
b0 X
b0 Y
b0 Z
b0 [
b0 \
b0 ]
b0 ^
b0 _
b0 `
b0 a
b0 b
b0 c
b0 d
b0 e
b0 f
b0 g
b0 h
b0 i
b0 j
b0 k
b0 l
b0 m
b0 n
b0 o
b0 p
b0 q
b0 r
b0 s
b0 t
b0 u
b0 v
b0 w
b0 x
b0 y
b0 z
b0 {
b0 |
b0 }
b0 ~
b0 !"
b0 ""
b0 #"
b0 $"
b0 %"
b0 &"
b0 '"
b0 ("
b0 )"
b0 =
10
1(
#40
00
0(
#60
0,
#80
b1010 &
b1010 5
b1010 B
02
b1010 +
b1010 /
b1010 >
b1010 G
#100
10
1(
#110
00
0(
#130
1*
#150
10
1(
#160
00
0(
#180
1,
#220
11
18
1:
b1 <
13
1C
b0 )"
b0 ("
b0 '"
b0 &"
b0 %"
b0 $"
b0 #"
b0 ""
b0 !"
b0 ~
b0 }
b0 |
b0 {
b0 z
b0 y
b0 x
b0 w
b0 v
b0 u
b0 t
b0 s
b0 r
b0 q
b0 p
b0 o
b0 n
b0 m
b0 l
b0 k
b0 j
b0 i
b0 h
b0 g
b0 f
b0 e
b0 d
b0 c
b0 b
b0 a
b0 `
b0 _
b0 ^
b0 ]
b0 \
b0 [
b0 Z
b0 Y
b0 X
b0 W
b0 V
b0 U
b0 T
b0 S
b0 R
b0 Q
b0 P
b0 O
b0 N
b0 M
b0 L
b0 K
b0 J
b0 I
b0 H
10
1(
#230
00
0(
#250
0,
#290
b10 <
12
04
b10 '
b10 6
b10 ;
01
07
08
09
1:
b1010 H
b1010 ?
b1010 E
b1 A
b1 F
b1 =
10
1(
#300
00
0(
#320
b10 <
02
b0 +
b0 /
b0 >
b0 G
#340
b0 &
b0 5
b0 B
b100 '
b100 6
b100 ;
17
b11 <
b10 =
10
1(
#350
00
0(
#370
b1110 &
b1110 5
b1110 B
b1110 +
b1110 /
b1110 >
b1110 G
#390
b1010 &
b1010 5
b1010 B
b111 '
b111 6
b111 ;
07
19
b11 =
10
1(
#400
00
0(
#420
b0 +
b0 /
b0 >
b0 G
#440
b0 &
b0 5
b0 B
12
b0 ?
b0 E
b1 @
b1 D
10
1(
#450
00
0(
#460
b1 )
#470
b0 ?
b0 E
b10 @
b10 D
10
1(
#480
00
0(
#490
b10 )
#500
1,
#560
b1 '
b1 6
b1 ;
11
17
18
09
14
b1 <
b0 =
b0 A
b0 F
b11 @
b11 D
b0 )"
b0 ("
b0 '"
b0 &"
b0 %"
b0 $"
b0 #"
b0 ""
b0 !"
b0 ~
b0 }
b0 |
b0 {
b0 z
b0 y
b0 x
b0 w
b0 v
b0 u
b0 t
b0 s
b0 r
b0 q
b0 p
b0 o
b0 n
b0 m
b0 l
b0 k
b0 j
b0 i
b0 h
b0 g
b0 f
b0 e
b0 d
b0 c
b0 b
b0 a
b0 `
b0 _
b0 ^
b0 ]
b0 \
b0 [
b0 Z
b0 Y
b0 X
b0 W
b0 V
b0 U
b0 T
b0 S
b0 R
b0 Q
b0 P
b0 O
b0 N
b0 M
b0 L
b0 K
b0 J
b0 I
b0 H
10
1(
#570
00
0(
#590
0,
#610
b1 <
b1001 &
b1001 5
b1001 B
02
b1001 +
b1001 /
b1001 >
b1001 G
#630
b10 <
12
04
b10 '
b10 6
b10 ;
01
07
08
09
1:
b1001 H
b1001 ?
b1001 E
b1 A
b1 F
b0 @
b0 D
b1 =
10
1(
#640
00
0(
#660
1,
#680
b1 '
b1 6
b1 ;
11
17
18
b1001 &
b1001 5
b1001 B
02
14
b1 <
b0 =
b0 A
b0 F
b0 )"
b0 ("
b0 '"
b0 &"
b0 %"
b0 $"
b0 #"
b0 ""
b0 !"
b0 ~
b0 }
b0 |
b0 {
b0 z
b0 y
b0 x
b0 w
b0 v
b0 u
b0 t
b0 s
b0 r
b0 q
b0 p
b0 o
b0 n
b0 m
b0 l
b0 k
b0 j
b0 i
b0 h
b0 g
b0 f
b0 e
b0 d
b0 c
b0 b
b0 a
b0 `
b0 _
b0 ^
b0 ]
b0 \
b0 [
b0 Z
b0 Y
b0 X
b0 W
b0 V
b0 U
b0 T
b0 S
b0 R
b0 Q
b0 P
b0 O
b0 N
b0 M
b0 L
b0 K
b0 J
b0 I
b0 H
b0 ?
b0 E
10
1(
#690
00
0(
#710
0,
#750
b10 <
12
04
b10 '
b10 6
b10 ;
01
07
08
09
1:
b1001 H
b1001 ?
b1001 E
b1 A
b1 F
b1 =
10
1(
#760
00
0(
#780
b100 '
b100 6
b100 ;
17
19
0:
b0 <
b10 =
10
1(
#790
00
0(
#810
1,
#830
02
14
b1 '
b1 6
b1 ;
11
18
09
1:
b1 <
b0 H
b0 I
b0 J
b0 K
b0 L
b0 M
b0 N
b0 O
b0 P
b0 Q
b0 R
b0 S
b0 T
b0 U
b0 V
b0 W
b0 X
b0 Y
b0 Z
b0 [
b0 \
b0 ]
b0 ^
b0 _
b0 `
b0 a
b0 b
b0 c
b0 d
b0 e
b0 f
b0 g
b0 h
b0 i
b0 j
b0 k
b0 l
b0 m
b0 n
b0 o
b0 p
b0 q
b0 r
b0 s
b0 t
b0 u
b0 v
b0 w
b0 x
b0 y
b0 z
b0 {
b0 |
b0 }
b0 ~
b0 !"
b0 ""
b0 #"
b0 $"
b0 %"
b0 &"
b0 '"
b0 ("
b0 )"
b0 ?
b0 E
b1 @
b1 D
b0 A
b0 F
b0 =
10
1(
